simulation/qsim/contador.msim.vcd
$comment
	File created using the following command:
		vcd file contador.msim.vcd -direction
$end
$date
	Mon Apr 03 22:27:28 2023
$end
$version
	ModelSim Version 10.1d
$end
$timescale
	1ps
$end
$scope module contador_top_vlg_vec_tst $end
$var reg 1 ! C $end
$var reg 1 " D $end
$var wire 1 # Carry $end
$var wire 1 $ out [7] $end
$var wire 1 % out [6] $end
$var wire 1 & out [5] $end
$var wire 1 ' out [4] $end
$var wire 1 ( out [3] $end
$var wire 1 ) out [2] $end
$var wire 1 * out [1] $end
$var wire 1 + out [0] $end
$var wire 1 , sampler $end
$scope module i1 $end
$var wire 1 - gnd $end
$var wire 1 . vcc $end
$var wire 1 / unknown $end
$var tri1 1 0 devclrn $end
$var tri1 1 1 devpor $end
$var tri1 1 2 devoe $end
$var wire 1 3 Carry~output_o $end
$var wire 1 4 out[7]~output_o $end
$var wire 1 5 out[6]~output_o $end
$var wire 1 6 out[5]~output_o $end
$var wire 1 7 out[4]~output_o $end
$var wire 1 8 out[3]~output_o $end
$var wire 1 9 out[2]~output_o $end
$var wire 1 : out[1]~output_o $end
$var wire 1 ; out[0]~output_o $end
$var wire 1 < C~input_o $end
$var wire 1 = C~inputclkctrl_outclk $end
$var wire 1 > D~input_o $end
$var wire 1 ? inst59~0_combout $end
$var wire 1 @ inst59~1_combout $end
$var wire 1 A inst12~1_combout $end
$var wire 1 B inst1~0_combout $end
$var wire 1 C inst1~q $end
$var wire 1 D inst18~0_combout $end
$var wire 1 E inst18~1_combout $end
$var wire 1 F inst2~0_combout $end
$var wire 1 G inst2~q $end
$var wire 1 H inst3~2_combout $end
$var wire 1 I inst3~q $end
$var wire 1 J inst4~0_combout $end
$var wire 1 K inst4~1_combout $end
$var wire 1 L inst4~q $end
$var wire 1 M inst60~0_combout $end
$var wire 1 N inst60~1_combout $end
$var wire 1 O inst12~0_combout $end
$var wire 1 P inst~0_combout $end
$var wire 1 Q inst~q $end
$var wire 1 R inst27~12_combout $end
$var wire 1 S inst27~11_combout $end
$var wire 1 T inst27~10_combout $end
$var wire 1 U inst5~0_combout $end
$var wire 1 V inst5~q $end
$var wire 1 W inst6~2_combout $end
$var wire 1 X inst6~q $end
$var wire 1 Y inst7~0_combout $end
$var wire 1 Z inst7~1_combout $end
$var wire 1 [ inst7~q $end
$upscope $end
$upscope $end
$enddefinitions $end
#0
$dumpvars
0!
1"
0#
0+
0*
0)
0(
0'
0&
0%
0$
x,
0-
1.
x/
10
11
12
03
04
05
06
07
08
09
0:
0;
0<
0=
1>
0?
0@
0A
0B
0C
1D
0E
0F
0G
0H
0I
1J
0K
0L
1M
1N
1O
1P
0Q
0R
0S
0T
0U
0V
0W
0X
1Y
0Z
0[
$end
#1000
1!
1<
1=
0,
1Q
0P
1B
1?
1;
1+
#2000
0!
0<
0=
1,
#3000
1!
1<
1=
0,
0Q
1C
1P
0?
0D
1@
0;
1:
0+
1*
#4000
0!
0<
0=
1,
#5000
1!
1<
1=
0,
1Q
0P
1E
0B
1?
1;
1+
1F
#6000
0!
0<
0=
1,
#7000
1!
1<
1=
0,
0Q
1G
0C
1P
0E
1H
0F
1D
0@
0;
19
0:
0+
1)
0*
0H
1F
#8000
0!
0<
0=
1,
#9000
1!
1<
1=
0,
1Q
1S
0P
1B
1;
1+
#10000
0!
0<
0=
1,
#11000
1!
1<
1=
0,
0Q
1C
0S
1P
0D
1@
0;
1:
0+
1*
#12000
0!
0<
0=
1,
#13000
1!
1<
1=
0,
1Q
1S
0P
1E
0B
1;
1+
1H
0F
#14000
0!
0<
0=
1,
#15000
1!
1<
1=
0,
0Q
1I
0G
0C
0S
1P
0E
1K
0J
1F
1D
0@
0;
18
09
0:
0+
1(
0)
0*
0F
0K
#16000
0!
0<
0=
1,
#17000
1!
1<
1=
0,
1Q
0P
1B
1;
1+
#18000
0!
0<
0=
1,
#19000
1!
1<
1=
0,
0Q
1C
1P
0D
1@
0;
1:
0+
1*
#20000
0!
0<
0=
1,
#21000
1!
1<
1=
0,
1Q
0P
1E
0B
1;
1+
1F
#22000
0!
0<
0=
1,
#23000
1!
1<
1=
0,
0Q
1G
0C
1P
0E
1J
0H
0F
1D
0@
0;
19
0:
0+
1)
0*
0J
1H
1F
1K
0K
#24000
0!
0<
0=
1,
#25000
1!
1<
1=
0,
1Q
1S
0P
1B
1;
1+
#26000
0!
0<
0=
1,
#27000
1!
1<
1=
0,
0Q
1C
0S
1P
0D
1@
0;
1:
0+
1*
#28000
0!
0<
0=
1,
#29000
1!
1<
1=
0,
1Q
1S
0P
1E
0B
1;
1+
1J
0H
0F
1K
#30000
0!
0<
0=
1,
#31000
1!
1<
1=
0,
0Q
1L
0I
0G
0C
0S
1P
0E
1F
1D
0@
0;
17
08
09
0:
0+
1'
0(
0)
0*
0F
#32000
0!
0<
0=
1,
#33000
1!
1<
1=
0,
1Q
0P
1B
1;
1+
#34000
0!
0<
0=
1,
#35000
1!
1<
1=
0,
0Q
1C
1P
0D
1@
0;
1:
0+
1*
#36000
0!
0<
0=
1,
#37000
1!
1<
1=
0,
1Q
0P
1E
0B
1;
1+
1F
#38000
0!
0<
0=
1,
#39000
1!
1<
1=
0,
0Q
1G
0C
1P
0E
1H
0F
1D
0@
0;
19
0:
0+
1)
0*
0H
1F
#40000
0!
0<
0=
1,
#41000
1!
1<
1=
0,
1Q
1S
0P
1B
1;
1+
#42000
0!
0<
0=
1,
#43000
1!
1<
1=
0,
0Q
1C
0S
1P
0D
1@
0;
1:
0+
1*
#44000
0!
0<
0=
1,
#45000
1!
1<
1=
0,
1Q
1S
0P
1E
0B
1;
1+
1H
0F
#46000
0!
0<
0=
1,
#47000
1!
1<
1=
0,
0Q
1I
0G
0C
0S
1P
0E
0K
0J
1F
1D
0@
0;
18
09
0:
0+
1(
0)
0*
0F
1K
#48000
0!
0<
0=
1,
#49000
1!
1<
1=
0,
1Q
0P
1B
1;
1+
#50000
0!
0<
0=
1,
#51000
1!
1<
1=
0,
0Q
1C
1P
1R
0D
1@
0;
1:
0+
1*
#52000
0!
0<
0=
1,
#53000
1!
1<
1=
0,
1Q
0P
1E
0B
1;
1+
1F
#54000
0!
0<
0=
1,
#55000
1!
1<
1=
0,
0Q
1G
0C
1P
0E
1J
0H
0F
0R
1D
0@
0;
19
0:
0+
1)
0*
0J
1H
1F
0K
1K
#56000
0!
0<
0=
1,
#57000
1!
1<
1=
0,
1Q
1S
0P
0M
1B
1;
1+
#58000
0!
0<
0=
1,
#59000
1!
1<
1=
0,
0Q
1C
0S
1P
1M
1R
0D
1@
0;
1:
0+
1*
#60000
0!
0<
0=
1,
#61000
1!
1<
1=
0,
1Q
1S
0P
0M
1E
0B
1;
1+
1T
1J
0H
0F
1U
0K
#62000
0!
0<
0=
1,
#63000
1!
1<
1=
0,
1V
0Q
0L
0I
0G
0C
1W
0U
0S
1P
1M
0E
0?
0R
1F
1D
16
0;
07
08
09
0:
1&
0+
0'
0(
0)
0*
0T
0F
0W
1U
#64000
0!
0<
0=
1,
#65000
1!
1<
1=
0,
1Q
0P
1B
1?
1;
1+
#66000
0!
0<
0=
1,
#67000
1!
1<
1=
0,
0Q
1C
1P
0?
0D
0;
1:
0+
1*
#68000
0!
0<
0=
1,
#69000
1!
1<
1=
0,
1Q
0P
1E
0B
1?
1;
1+
1F
#70000
0!
0<
0=
1,
#71000
1!
1<
1=
0,
0Q
1G
0C
1P
0E
1H
0F
1D
0;
19
0:
0+
1)
0*
0H
1F
#72000
0!
0<
0=
1,
#73000
1!
1<
1=
0,
1Q
1S
0P
1B
1;
1+
#74000
0!
0<
0=
1,
#75000
1!
1<
1=
0,
0Q
1C
0S
1P
0D
0;
1:
0+
1*
#76000
0!
0<
0=
1,
#77000
1!
1<
1=
0,
1Q
1S
0P
1E
0B
1;
1+
1H
0F
#78000
0!
0<
0=
1,
#79000
1!
1<
1=
0,
0Q
1I
0G
0C
0S
1P
0E
1K
0J
1F
1D
0;
18
09
0:
0+
1(
0)
0*
0F
0K
#80000
0!
0<
0=
1,
#81000
1!
1<
1=
0,
1Q
0P
1B
1;
1+
#82000
0!
0<
0=
1,
#83000
1!
1<
1=
0,
0Q
1C
1P
0D
0;
1:
0+
1*
#84000
0!
0<
0=
1,
#85000
1!
1<
1=
0,
1Q
0P
1E
0B
1;
1+
1F
#86000
0!
0<
0=
1,
#87000
1!
1<
1=
0,
0Q
1G
0C
1P
0E
1J
0H
0F
1D
0;
19
0:
0+
1)
0*
0J
1H
1F
1K
0K
#88000
0!
0<
0=
1,
#89000
1!
1<
1=
0,
1Q
1S
0P
1B
1;
1+
#90000
0!
0<
0=
1,
#91000
1!
1<
1=
0,
0Q
1C
0S
1P
0D
0;
1:
0+
1*
#92000
0!
0<
0=
1,
#93000
1!
1<
1=
0,
1Q
1S
0P
1E
0B
1;
1+
1J
0H
0F
1K
#94000
0!
0<
0=
1,
#95000
1!
1<
1=
0,
0Q
1L
0I
0G
0C
0S
1P
0E
1F
1D
0;
17
08
09
0:
0+
1'
0(
0)
0*
0F
#96000
0!
0<
0=
1,
#97000
1!
1<
1=
0,
1Q
0P
1B
1;
1+
#98000
0!
0<
0=
1,
#99000
1!
1<
1=
0,
0Q
1C
1P
0D
0;
1:
0+
1*
#100000
0!
0<
0=
1,
#101000
1!
1<
1=
0,
1Q
0P
1E
0B
1;
1+
1F
#102000
0!
0<
0=
1,
#103000
1!
1<
1=
0,
0Q
1G
0C
1P
0E
1H
0F
1D
0;
19
0:
0+
1)
0*
0H
1F
#104000
0!
0<
0=
1,
#105000
1!
1<
1=
0,
1Q
1S
0P
1B
1;
1+
#106000
0!
0<
0=
1,
#107000
1!
1<
1=
0,
0Q
1C
0S
1P
0D
0;
1:
0+
1*
#108000
0!
0<
0=
1,
#109000
1!
1<
1=
0,
1Q
1S
0P
1E
0B
1;
1+
1H
0F
#110000
0!
0<
0=
1,
#111000
1!
1<
1=
0,
0Q
1I
0G
0C
0S
1P
0E
0K
0J
1F
1D
0;
18
09
0:
0+
1(
0)
0*
0F
1K
#112000
0!
0<
0=
1,
#113000
1!
1<
1=
0,
1Q
0P
1B
1;
1+
#114000
0!
0<
0=
1,
#115000
1!
1<
1=
0,
0Q
1C
1P
1R
0D
0;
1:
0+
1*
#116000
0!
0<
0=
1,
#117000
1!
1<
1=
0,
1Q
0P
1E
0B
1;
1+
1F
#118000
0!
0<
0=
1,
#119000
1!
1<
1=
0,
0Q
1G
0C
1P
0E
1J
0H
0F
0R
1D
0;
19
0:
0+
1)
0*
0J
1H
1F
0K
1K
#120000
0!
0<
0=
1,
#121000
1!
1<
1=
0,
1Q
1S
0P
0M
1B
1;
1+
#122000
0!
0<
0=
1,
#123000
1!
1<
1=
0,
0Q
1C
0S
1P
1M
1R
0D
0;
1:
0+
1*
#124000
0!
0<
0=
1,
#125000
1!
1<
1=
0,
1Q
1S
0P
0M
1E
0B
1;
1+
1T
1J
0H
0F
1W
0U
0K
#126000
0!
0<
0=
1,
#127000
1!
1<
1=
0,
1X
0V
0Q
0L
0I
0G
0C
1Z
0Y
1U
0S
1P
1M
0E
0?
0R
1F
1D
15
06
0;
07
08
09
0:
1%
0&
0+
0'
0(
0)
0*
0Z
0T
0F
0U
#128000
0!
0<
0=
1,
#129000
1!
1<
1=
0,
1Q
0P
1B
1?
1;
1+
#130000
0!
0<
0=
1,
#131000
1!
1<
1=
0,
0Q
1C
1P
0?
0D
0;
1:
0+
1*
#132000
0!
0<
0=
1,
#133000
1!
1<
1=
0,
1Q
0P
1E
0B
1?
1;
1+
1F
#134000
0!
0<
0=
1,
#135000
1!
1<
1=
0,
0Q
1G
0C
1P
0E
1H
0F
1D
0;
19
0:
0+
1)
0*
0H
1F
#136000
0!
0<
0=
1,
#137000
1!
1<
1=
0,
1Q
1S
0P
1B
1;
1+
#138000
0!
0<
0=
1,
#139000
1!
1<
1=
0,
0Q
1C
0S
1P
0D
0;
1:
0+
1*
#140000
0!
0<
0=
1,
#141000
1!
1<
1=
0,
1Q
1S
0P
1E
0B
1;
1+
1H
0F
#142000
0!
0<
0=
1,
#143000
1!
1<
1=
0,
0Q
1I
0G
0C
0S
1P
0E
1K
0J
1F
1D
0;
18
09
0:
0+
1(
0)
0*
0F
0K
#144000
0!
0<
0=
1,
#145000
1!
1<
1=
0,
1Q
0P
1B
1;
1+
#146000
0!
0<
0=
1,
#147000
1!
1<
1=
0,
0Q
1C
1P
0D
0;
1:
0+
1*
#148000
0!
0<
0=
1,
#149000
1!
1<
1=
0,
1Q
0P
1E
0B
1;
1+
1F
#150000
0!
0<
0=
1,
#151000
1!
1<
1=
0,
0Q
1G
0C
1P
0E
1J
0H
0F
1D
0;
19
0:
0+
1)
0*
0J
1H
1F
1K
0K
#152000
0!
0<
0=
1,
#153000
1!
1<
1=
0,
1Q
1S
0P
1B
1;
1+
#154000
0!
0<
0=
1,
#155000
1!
1<
1=
0,
0Q
1C
0S
1P
0D
0;
1:
0+
1*
#156000
0!
0<
0=
1,
#157000
1!
1<
1=
0,
1Q
1S
0P
1E
0B
1;
1+
1J
0H
0F
1K
#158000
0!
0<
0=
1,
#159000
1!
1<
1=
0,
0Q
1L
0I
0G
0C
0S
1P
0E
1F
1D
0;
17
08
09
0:
0+
1'
0(
0)
0*
0F
#160000
0!
0<
0=
1,
#161000
1!
1<
1=
0,
1Q
0P
1B
1;
1+
#162000
0!
0<
0=
1,
#163000
1!
1<
1=
0,
0Q
1C
1P
0D
0;
1:
0+
1*
#164000
0!
0<
0=
1,
#165000
1!
1<
1=
0,
1Q
0P
1E
0B
1;
1+
1F
#166000
0!
0<
0=
1,
#167000
1!
1<
1=
0,
0Q
1G
0C
1P
0E
1H
0F
1D
0;
19
0:
0+
1)
0*
0H
1F
#168000
0!
0<
0=
1,
#169000
1!
1<
1=
0,
1Q
1S
0P
1B
1;
1+
#170000
0!
0<
0=
1,
#171000
1!
1<
1=
0,
0Q
1C
0S
1P
0D
0;
1:
0+
1*
#172000
0!
0<
0=
1,
#173000
1!
1<
1=
0,
1Q
1S
0P
1E
0B
1;
1+
1H
0F
#174000
0!
0<
0=
1,
#175000
1!
1<
1=
0,
0Q
1I
0G
0C
0S
1P
0E
0K
0J
1F
1D
0;
18
09
0:
0+
1(
0)
0*
0F
1K
#176000
0!
0<
0=
1,
#177000
1!
1<
1=
0,
1Q
0P
1B
1;
1+
#178000
0!
0<
0=
1,
#179000
1!
1<
1=
0,
0Q
1C
1P
1R
0D
0;
1:
0+
1*
#180000
0!
0<
0=
1,
#181000
1!
1<
1=
0,
1Q
0P
1E
0B
1;
1+
1F
#182000
0!
0<
0=
1,
#183000
1!
1<
1=
0,
0Q
1G
0C
1P
0E
1J
0H
0F
0R
1D
0;
19
0:
0+
1)
0*
0J
1H
1F
0K
1K
#184000
0!
0<
0=
1,
#185000
1!
1<
1=
0,
1Q
1S
0P
0M
1B
1;
1+
#186000
0!
0<
0=
1,
#187000
1!
1<
1=
0,
0Q
1C
0S
1P
1M
1R
0D
0;
1:
0+
1*
#188000
0!
0<
0=
1,
#189000
1!
1<
1=
0,
1Q
1S
0P
0M
1E
0B
1;
1+
1T
1J
0H
0F
1U
0K
#190000
0!
0<
0=
1,
#191000
1!
1<
1=
0,
1V
0Q
0L
0I
0G
0C
1Y
0W
0U
0S
1P
1M
0E
0?
0R
1F
1D
16
0;
07
08
09
0:
1&
0+
0'
0(
0)
0*
1Z
0T
0F
0Y
1W
1U
0Z
#192000
0!
0<
0=
1,
#193000
1!
1<
1=
0,
1Q
0P
1B
1?
1;
1+
#194000
0!
0<
0=
1,
#195000
1!
1<
1=
0,
0Q
1C
1P
0?
0D
0;
1:
0+
1*
#196000
0!
0<
0=
1,
#197000
1!
1<
1=
0,
1Q
0P
1E
0B
1?
1;
1+
1F
#198000
0!
0<
0=
1,
#199000
1!
1<
1=
0,
0Q
1G
0C
1P
0E
1H
0F
1D
0;
19
0:
0+
1)
0*
0H
1F
#200000
0!
0<
0=
1,
#201000
1!
1<
1=
0,
1Q
1S
0P
1B
1;
1+
#202000
0!
0<
0=
1,
#203000
1!
1<
1=
0,
0Q
1C
0S
1P
0D
0;
1:
0+
1*
#204000
0!
0<
0=
1,
#205000
1!
1<
1=
0,
1Q
1S
0P
1E
0B
1;
1+
1H
0F
#206000
0!
0<
0=
1,
#207000
1!
1<
1=
0,
0Q
1I
0G
0C
0S
1P
0E
1K
0J
1F
1D
0;
18
09
0:
0+
1(
0)
0*
0F
0K
#208000
0!
0<
0=
1,
#209000
1!
1<
1=
0,
1Q
0P
1B
1;
1+
#210000
0!
0<
0=
1,
#211000
1!
1<
1=
0,
0Q
1C
1P
0D
0;
1:
0+
1*
#212000
0!
0<
0=
1,
#213000
1!
1<
1=
0,
1Q
0P
1E
0B
1;
1+
1F
#214000
0!
0<
0=
1,
#215000
1!
1<
1=
0,
0Q
1G
0C
1P
0E
1J
0H
0F
1D
0;
19
0:
0+
1)
0*
0J
1H
1F
1K
0K
#216000
0!
0<
0=
1,
#217000
1!
1<
1=
0,
1Q
1S
0P
1B
1;
1+
#218000
0!
0<
0=
1,
#219000
1!
1<
1=
0,
0Q
1C
0S
1P
0D
0;
1:
0+
1*
#220000
0!
0<
0=
1,
#221000
1!
1<
1=
0,
1Q
1S
0P
1E
0B
1;
1+
1J
0H
0F
1K
#222000
0!
0<
0=
1,
#223000
1!
1<
1=
0,
0Q
1L
0I
0G
0C
0S
1P
0E
1F
1D
0;
17
08
09
0:
0+
1'
0(
0)
0*
0F
#224000
0!
0<
0=
1,
#225000
1!
1<
1=
0,
1Q
0P
1B
1;
1+
#226000
0!
0<
0=
1,
#227000
1!
1<
1=
0,
0Q
1C
1P
0D
0;
1:
0+
1*
#228000
0!
0<
0=
1,
#229000
1!
1<
1=
0,
1Q
0P
1E
0B
1;
1+
1F
#230000
0!
0<
0=
1,
#231000
1!
1<
1=
0,
0Q
1G
0C
1P
0E
1H
0F
1D
0;
19
0:
0+
1)
0*
0H
1F
#232000
0!
0<
0=
1,
#233000
1!
1<
1=
0,
1Q
1S
0P
1B
1;
1+
#234000
0!
0<
0=
1,
#235000
1!
1<
1=
0,
0Q
1C
0S
1P
0D
0;
1:
0+
1*
#236000
0!
0<
0=
1,
#237000
1!
1<
1=
0,
1Q
1S
0P
1E
0B
1;
1+
1H
0F
#238000
0!
0<
0=
1,
#239000
1!
1<
1=
0,
0Q
1I
0G
0C
0S
1P
0E
0K
0J
1F
1D
0;
18
09
0:
0+
1(
0)
0*
0F
1K
#240000
0!
0<
0=
1,
#241000
1!
1<
1=
0,
1Q
0P
1B
1;
1+
#242000
0!
0<
0=
1,
#243000
1!
1<
1=
0,
0Q
1C
1P
1R
0D
0;
1:
0+
1*
#244000
0!
0<
0=
1,
#245000
1!
1<
1=
0,
1Q
0P
1E
0B
1;
1+
1F
#246000
0!
0<
0=
1,
#247000
1!
1<
1=
0,
0Q
1G
0C
1P
0E
1J
0H
0F
0R
1D
0;
19
0:
0+
1)
0*
0J
1H
1F
0K
1K
#248000
0!
0<
0=
1,
#249000
1!
1<
1=
0,
1Q
1S
0P
0M
1B
1;
1+
#250000
0!
0<
0=
1,
#251000
1!
1<
1=
0,
0Q
1C
0S
1P
1M
1R
0D
0;
1:
0+
1*
#252000
0!
0<
0=
1,
#253000
1!
1<
1=
0,
1Q
1S
0P
0M
1E
0B
1;
1+
1T
1J
0H
0F
1Y
0W
0U
0K
1Z
#254000
0!
0<
0=
1,
#255000
1!
1<
1=
0,
1[
0X
0V
0Q
0L
0I
0G
0C
1U
0S
1P
1M
0E
0?
0R
1F
1D
14
05
06
0;
07
08
09
0:
1$
0%
0&
0+
0'
0(
0)
0*
0T
0F
0U
#256000
0!
0<
0=
1,
#257000
1!
1<
1=
0,
1Q
0P
1B
1?
1;
1+
#258000
0!
0<
0=
1,
#259000
1!
1<
1=
0,
0Q
1C
1P
0?
0D
0;
1:
0+
1*
#260000
0!
0<
0=
1,
#261000
1!
1<
1=
0,
1Q
0P
1E
0B
1?
1;
1+
1F
#262000
0!
0<
0=
1,
#263000
1!
1<
1=
0,
0Q
1G
0C
1P
0E
1H
0F
1D
0;
19
0:
0+
1)
0*
0H
1F
#264000
0!
0<
0=
1,
#265000
1!
1<
1=
0,
1Q
1S
0P
1B
1;
1+
#266000
0!
0<
0=
1,
#267000
1!
1<
1=
0,
0Q
1C
0S
1P
0D
0;
1:
0+
1*
#268000
0!
0<
0=
1,
#269000
1!
1<
1=
0,
1Q
1S
0P
1E
0B
1;
1+
1H
0F
#270000
0!
0<
0=
1,
#271000
1!
1<
1=
0,
0Q
1I
0G
0C
0S
1P
0E
1K
0J
1F
1D
0;
18
09
0:
0+
1(
0)
0*
0F
0K
#272000
0!
0<
0=
1,
#273000
1!
1<
1=
0,
1Q
0P
1B
1;
1+
#274000
0!
0<
0=
1,
#275000
1!
1<
1=
0,
0Q
1C
1P
0D
0;
1:
0+
1*
#276000
0!
0<
0=
1,
#277000
1!
1<
1=
0,
1Q
0P
1E
0B
1;
1+
1F
#278000
0!
0<
0=
1,
#279000
1!
1<
1=
0,
0Q
1G
0C
1P
0E
1J
0H
0F
1D
0;
19
0:
0+
1)
0*
0J
1H
1F
1K
0K
#280000
0!
0<
0=
1,
#281000
1!
1<
1=
0,
1Q
1S
0P
1B
1;
1+
#282000
0!
0<
0=
1,
#283000
1!
1<
1=
0,
0Q
1C
0S
1P
0D
0;
1:
0+
1*
#284000
0!
0<
0=
1,
#285000
1!
1<
1=
0,
1Q
1S
0P
1E
0B
1;
1+
1J
0H
0F
1K
#286000
0!
0<
0=
1,
#287000
1!
1<
1=
0,
0Q
1L
0I
0G
0C
0S
1P
0E
1F
1D
0;
17
08
09
0:
0+
1'
0(
0)
0*
0F
#288000
0!
0<
0=
1,
#289000
1!
1<
1=
0,
1Q
0P
1B
1;
1+
#290000
0!
0<
0=
1,
#291000
1!
1<
1=
0,
0Q
1C
1P
0D
0;
1:
0+
1*
#292000
0!
0<
0=
1,
#293000
1!
1<
1=
0,
1Q
0P
1E
0B
1;
1+
1F
#294000
0!
0<
0=
1,
#295000
1!
1<
1=
0,
0Q
1G
0C
1P
0E
1H
0F
1D
0;
19
0:
0+
1)
0*
0H
1F
#296000
0!
0<
0=
1,
#297000
1!
1<
1=
0,
1Q
1S
0P
1B
1;
1+
#298000
0!
0<
0=
1,
#299000
1!
1<
1=
0,
0Q
1C
0S
1P
0D
0;
1:
0+
1*
#300000
0!
0<
0=
1,
#301000
1!
1<
1=
0,
1Q
1S
0P
1E
0B
1;
1+
1H
0F
#302000
0!
0<
0=
1,
#303000
1!
1<
1=
0,
0Q
1I
0G
0C
0S
1P
0E
0K
0J
1F
1D
0;
18
09
0:
0+
1(
0)
0*
0F
1K
#304000
0!
0<
0=
1,
#305000
1!
1<
1=
0,
1Q
0P
1B
1;
1+
#306000
0!
0<
0=
1,
#307000
1!
1<
1=
0,
0Q
1C
1P
1R
0D
0;
1:
0+
1*
#308000
0!
0<
0=
1,
#309000
1!
1<
1=
0,
1Q
0P
1E
0B
1;
1+
1F
#310000
0!
0<
0=
1,
#311000
1!
1<
1=
0,
0Q
1G
0C
1P
0E
1J
0H
0F
0R
1D
0;
19
0:
0+
1)
0*
0J
1H
1F
0K
1K
#312000
0!
0<
0=
1,
#313000
1!
1<
1=
0,
1Q
1S
0P
0M
1B
1;
1+
#314000
0!
0<
0=
1,
#315000
1!
1<
1=
0,
0Q
1C
0S
1P
1M
1R
0D
0;
1:
0+
1*
#316000
0!
0<
0=
1,
#317000
1!
1<
1=
0,
1Q
1S
0P
0M
1E
0B
1;
1+
1T
1J
0H
0F
1U
0K
#318000
0!
0<
0=
1,
#319000
1!
1<
1=
0,
1V
0Q
0L
0I
0G
0C
1W
0U
0S
1P
1M
0E
0?
0R
1F
1D
16
0;
07
08
09
0:
1&
0+
0'
0(
0)
0*
0T
0F
0W
1U
#320000
0!
0<
0=
1,
#321000
1!
1<
1=
0,
1Q
0P
1B
1?
1;
1+
#322000
0!
0<
0=
1,
#323000
1!
1<
1=
0,
0Q
1C
1P
0?
0D
0;
1:
0+
1*
#324000
0!
0<
0=
1,
#325000
1!
1<
1=
0,
1Q
0P
1E
0B
1?
1;
1+
1F
#326000
0!
0<
0=
1,
#327000
1!
1<
1=
0,
0Q
1G
0C
1P
0E
1H
0F
1D
0;
19
0:
0+
1)
0*
0H
1F
#328000
0!
0<
0=
1,
#329000
1!
1<
1=
0,
1Q
1S
0P
1B
1;
1+
#330000
0!
0<
0=
1,
#331000
1!
1<
1=
0,
0Q
1C
0S
1P
0D
0;
1:
0+
1*
#332000
0!
0<
0=
1,
#333000
1!
1<
1=
0,
1Q
1S
0P
1E
0B
1;
1+
1H
0F
#334000
0!
0<
0=
1,
#335000
1!
1<
1=
0,
0Q
1I
0G
0C
0S
1P
0E
1K
0J
1F
1D
0;
18
09
0:
0+
1(
0)
0*
0F
0K
#336000
0!
0<
0=
1,
#337000
1!
1<
1=
0,
1Q
0P
1B
1;
1+
#338000
0!
0<
0=
1,
#339000
1!
1<
1=
0,
0Q
1C
1P
0D
0;
1:
0+
1*
#340000
0!
0<
0=
1,
#341000
1!
1<
1=
0,
1Q
0P
1E
0B
1;
1+
1F
#342000
0!
0<
0=
1,
#343000
1!
1<
1=
0,
0Q
1G
0C
1P
0E
1J
0H
0F
1D
0;
19
0:
0+
1)
0*
0J
1H
1F
1K
0K
#344000
0!
0<
0=
1,
#345000
1!
1<
1=
0,
1Q
1S
0P
1B
1;
1+
#346000
0!
0<
0=
1,
#347000
1!
1<
1=
0,
0Q
1C
0S
1P
0D
0;
1:
0+
1*
#348000
0!
0<
0=
1,
#349000
1!
1<
1=
0,
1Q
1S
0P
1E
0B
1;
1+
1J
0H
0F
1K
#350000
0!
0<
0=
1,
#351000
1!
1<
1=
0,
0Q
1L
0I
0G
0C
0S
1P
0E
1F
1D
0;
17
08
09
0:
0+
1'
0(
0)
0*
0F
#352000
0!
0<
0=
1,
#353000
1!
1<
1=
0,
1Q
0P
1B
1;
1+
#354000
0!
0<
0=
1,
#355000
1!
1<
1=
0,
0Q
1C
1P
0D
0;
1:
0+
1*
#356000
0!
0<
0=
1,
#357000
1!
1<
1=
0,
1Q
0P
1E
0B
1;
1+
1F
#358000
0!
0<
0=
1,
#359000
1!
1<
1=
0,
0Q
1G
0C
1P
0E
1H
0F
1D
0;
19
0:
0+
1)
0*
0H
1F
#360000
0!
0<
0=
1,
#361000
1!
1<
1=
0,
1Q
1S
0P
1B
1;
1+
#362000
0!
0<
0=
1,
#363000
1!
1<
1=
0,
0Q
1C
0S
1P
0D
0;
1:
0+
1*
#364000
0!
0<
0=
1,
#365000
1!
1<
1=
0,
1Q
1S
0P
1E
0B
1;
1+
1H
0F
#366000
0!
0<
0=
1,
#367000
1!
1<
1=
0,
0Q
1I
0G
0C
0S
1P
0E
0K
0J
1F
1D
0;
18
09
0:
0+
1(
0)
0*
0F
1K
#368000
0!
0<
0=
1,
#369000
1!
1<
1=
0,
1Q
0P
1B
1;
1+
#370000
0!
0<
0=
1,
#371000
1!
1<
1=
0,
0Q
1C
1P
1R
0D
0;
1:
0+
1*
#372000
0!
0<
0=
1,
#373000
1!
1<
1=
0,
1Q
0P
1E
0B
1;
1+
1F
#374000
0!
0<
0=
1,
#375000
1!
1<
1=
0,
0Q
1G
0C
1P
0E
1J
0H
0F
0R
1D
0;
19
0:
0+
1)
0*
0J
1H
1F
0K
1K
#376000
0!
0<
0=
1,
#377000
1!
1<
1=
0,
1Q
1S
0P
0M
1B
1;
1+
#378000
0!
0<
0=
1,
#379000
1!
1<
1=
0,
0Q
1C
0S
1P
1M
1R
0D
0;
1:
0+
1*
#380000
0!
0<
0=
1,
#381000
1!
1<
1=
0,
1Q
1S
0P
0M
1E
0B
1;
1+
1T
1J
0H
0F
1W
0U
0K
#382000
0!
0<
0=
1,
#383000
1!
1<
1=
0,
1X
0V
0Q
0L
0I
0G
0C
0Z
0Y
1U
0S
1P
1M
0E
0?
0R
1F
1D
15
06
0;
07
08
09
0:
1%
0&
0+
0'
0(
0)
0*
1Z
0T
0F
0U
#384000
0!
0<
0=
1,
#385000
1!
1<
1=
0,
1Q
0P
1B
1?
1;
1+
#386000
0!
0<
0=
1,
#387000
1!
1<
1=
0,
0Q
1C
1P
0?
0D
0;
1:
0+
1*
#388000
0!
0<
0=
1,
#389000
1!
1<
1=
0,
1Q
0P
1E
0B
1?
1;
1+
1F
#390000
0!
0<
0=
1,
#391000
1!
1<
1=
0,
0Q
1G
0C
1P
0E
1H
0F
1D
0;
19
0:
0+
1)
0*
0H
1F
#392000
0!
0<
0=
1,
#393000
1!
1<
1=
0,
1Q
1S
0P
1B
1;
1+
#394000
0!
0<
0=
1,
#395000
1!
1<
1=
0,
0Q
1C
0S
1P
0D
0;
1:
0+
1*
#396000
0!
0<
0=
1,
#397000
1!
1<
1=
0,
1Q
1S
0P
1E
0B
1;
1+
1H
0F
#398000
0!
0<
0=
1,
#399000
1!
1<
1=
0,
0Q
1I
0G
0C
0S
1P
0E
1K
0J
1F
1D
0;
18
09
0:
0+
1(
0)
0*
0F
0K
#400000
0!
0<
0=
1,
#401000
1!
1<
1=
0,
1Q
0P
1B
1;
1+
#402000
0!
0<
0=
1,
#403000
1!
1<
1=
0,
0Q
1C
1P
0D
0;
1:
0+
1*
#404000
0!
0<
0=
1,
#405000
1!
1<
1=
0,
1Q
0P
1E
0B
1;
1+
1F
#406000
0!
0<
0=
1,
#407000
1!
1<
1=
0,
0Q
1G
0C
1P
0E
1J
0H
0F
1D
0;
19
0:
0+
1)
0*
0J
1H
1F
1K
0K
#408000
0!
0<
0=
1,
#409000
1!
1<
1=
0,
1Q
1S
0P
1B
1;
1+
