simulation/qsim/contador.msim.vcd
$comment
	File created using the following command:
		vcd file contador.msim.vcd -direction
$end
$date
	Tue Apr 11 01:34:10 2023
$end
$version
	ModelSim Version 10.1d
$end
$timescale
	1ps
$end
$scope module contador_top_vlg_vec_tst $end
$var reg 1 ! C $end
$var reg 1 " D $end
$var wire 1 # Carry $end
$var wire 1 $ LED $end
$var wire 1 % out [7] $end
$var wire 1 & out [6] $end
$var wire 1 ' out [5] $end
$var wire 1 ( out [4] $end
$var wire 1 ) out [3] $end
$var wire 1 * out [2] $end
$var wire 1 + out [1] $end
$var wire 1 , out [0] $end
$var wire 1 - sampler $end
$scope module i1 $end
$var wire 1 . gnd $end
$var wire 1 / vcc $end
$var wire 1 0 unknown $end
$var tri1 1 1 devclrn $end
$var tri1 1 2 devpor $end
$var tri1 1 3 devoe $end
$var wire 1 4 Carry~output_o $end
$var wire 1 5 out[7]~output_o $end
$var wire 1 6 out[6]~output_o $end
$var wire 1 7 out[5]~output_o $end
$var wire 1 8 out[4]~output_o $end
$var wire 1 9 out[3]~output_o $end
$var wire 1 : out[2]~output_o $end
$var wire 1 ; out[1]~output_o $end
$var wire 1 < out[0]~output_o $end
$var wire 1 = LED~output_o $end
$var wire 1 > C~input_o $end
$var wire 1 ? C~inputclkctrl_outclk $end
$var wire 1 @ D~input_o $end
$var wire 1 A inst57~0_combout $end
$var wire 1 B inst57~1_combout $end
$var wire 1 C inst12~1_combout $end
$var wire 1 D inst60~1_combout $end
$var wire 1 E inst60~0_combout $end
$var wire 1 F inst12~0_combout $end
$var wire 1 G inst~0_combout $end
$var wire 1 H inst~q $end
$var wire 1 I inst1~0_combout $end
$var wire 1 J inst1~q $end
$var wire 1 K inst18~0_combout $end
$var wire 1 L inst18~1_combout $end
$var wire 1 M inst2~0_combout $end
$var wire 1 N inst2~q $end
$var wire 1 O inst3~2_combout $end
$var wire 1 P inst3~q $end
$var wire 1 Q inst4~0_combout $end
$var wire 1 R inst4~1_combout $end
$var wire 1 S inst4~q $end
$var wire 1 T inst27~12_combout $end
$var wire 1 U inst27~11_combout $end
$var wire 1 V inst27~10_combout $end
$var wire 1 W inst5~0_combout $end
$var wire 1 X inst5~q $end
$var wire 1 Y inst6~2_combout $end
$var wire 1 Z inst6~q $end
$var wire 1 [ inst7~0_combout $end
$var wire 1 \ inst7~1_combout $end
$var wire 1 ] inst7~q $end
$var wire 1 ^ inst57~combout $end
$upscope $end
$upscope $end
$enddefinitions $end
#0
$dumpvars
0!
1"
0#
0$
0,
0+
0*
0)
0(
0'
0&
0%
x-
0.
1/
x0
11
12
13
04
05
06
07
08
09
0:
0;
0<
0=
0>
0?
1@
1A
1B
0C
1D
1E
0F
0G
0H
0I
0J
1K
0L
0M
0N
0O
0P
0Q
0R
0S
1T
0U
0V
0W
0X
0Y
0Z
0[
0\
0]
0^
$end
#2000
1!
1>
1?
0-
1^
1=
1$
#4000
0!
0>
0?
1-
0^
0=
0$
#6000
1!
1>
1?
0-
1^
1=
1$
#8000
0!
0>
0?
1-
0^
0=
0$
#10000
1!
1>
1?
0-
1^
1=
1$
#12000
0!
0>
0?
1-
0^
0=
0$
#14000
1!
1>
1?
0-
1^
1=
1$
#16000
0!
0>
0?
1-
0^
0=
0$
#18000
1!
1>
1?
0-
1^
1=
1$
#20000
0!
0>
0?
1-
0^
0=
0$
#22000
1!
1>
1?
0-
1^
1=
1$
#24000
0!
0>
0?
1-
0^
0=
0$
#26000
1!
1>
1?
0-
1^
1=
1$
#28000
0!
0>
0?
1-
0^
0=
0$
#30000
1!
1>
1?
0-
1^
1=
1$
#32000
0!
0>
0?
1-
0^
0=
0$
#34000
1!
1>
1?
0-
1^
1=
1$
#36000
0!
0>
0?
1-
0^
0=
0$
#38000
1!
1>
1?
0-
1^
1=
1$
#40000
0!
0>
0?
1-
0^
0=
0$
#42000
1!
1>
1?
0-
1^
1=
1$
#44000
0!
0>
0?
1-
0^
0=
0$
#46000
1!
1>
1?
0-
1^
1=
1$
#48000
0!
0>
0?
1-
0^
0=
0$
#50000
1!
1>
1?
0-
1^
1=
1$
#52000
0!
0>
0?
1-
0^
0=
0$
#54000
1!
1>
1?
0-
1^
1=
1$
#56000
0!
0>
0?
1-
0^
0=
0$
#58000
1!
1>
1?
0-
1^
1=
1$
#60000
0!
0>
0?
1-
0^
0=
0$
#62000
1!
1>
1?
0-
1^
1=
1$
#64000
0!
0>
0?
1-
0^
0=
0$
#66000
1!
1>
1?
0-
1^
1=
1$
#68000
0!
0>
0?
1-
0^
0=
0$
#70000
1!
1>
1?
0-
1^
1=
1$
#72000
0!
0>
0?
1-
0^
0=
0$
#74000
1!
1>
1?
0-
1^
1=
1$
#76000
0!
0>
0?
1-
0^
0=
0$
#78000
1!
1>
1?
0-
1^
1=
1$
#80000
0!
0>
0?
1-
0^
0=
0$
#82000
1!
1>
1?
0-
1^
1=
1$
#84000
0!
0>
0?
1-
0^
0=
0$
#86000
1!
1>
1?
0-
1^
1=
1$
#88000
0!
0>
0?
1-
0^
0=
0$
#90000
1!
1>
1?
0-
1^
1=
1$
#92000
0!
0>
0?
1-
0^
0=
0$
#94000
1!
1>
1?
0-
1^
1=
1$
#96000
0!
0>
0?
1-
0^
0=
0$
#98000
1!
1>
1?
0-
1^
1=
1$
#100000
0!
0>
0?
1-
0^
0=
0$
#102000
1!
1>
1?
0-
1^
1=
1$
#104000
0!
0>
0?
1-
0^
0=
0$
#106000
1!
1>
1?
0-
1^
1=
1$
#108000
0!
0>
0?
1-
0^
0=
0$
#110000
1!
1>
1?
0-
1^
1=
1$
#112000
0!
0>
0?
1-
0^
0=
0$
#114000
1!
1>
1?
0-
1^
1=
1$
#116000
0!
0>
0?
1-
0^
0=
0$
#118000
1!
1>
1?
0-
1^
1=
1$
#120000
0!
0>
0?
1-
0^
0=
0$
#122000
1!
1>
1?
0-
1^
1=
1$
#124000
0!
0>
0?
1-
0^
0=
0$
#126000
1!
1>
1?
0-
1^
1=
1$
#128000
0!
0>
0?
1-
0^
0=
0$
#130000
1!
1>
1?
0-
1^
1=
1$
#132000
0!
0>
0?
1-
0^
0=
0$
#134000
1!
1>
1?
0-
1^
1=
1$
#136000
0!
0>
0?
1-
0^
0=
0$
#138000
1!
1>
1?
0-
1^
1=
1$
#140000
0!
0>
0?
1-
0^
0=
0$
#142000
1!
1>
1?
0-
1^
1=
1$
#144000
0!
0>
0?
1-
0^
0=
0$
#146000
1!
1>
1?
0-
1^
1=
1$
#148000
0!
0>
0?
1-
0^
0=
0$
#150000
1!
1>
1?
0-
1^
1=
1$
#152000
0!
0>
0?
1-
0^
0=
0$
#154000
1!
1>
1?
0-
1^
1=
1$
#156000
0!
0>
0?
1-
0^
0=
0$
#158000
1!
1>
1?
0-
1^
1=
1$
#160000
0!
0>
0?
1-
0^
0=
0$
#162000
1!
1>
1?
0-
1^
1=
1$
#164000
0!
0>
0?
1-
0^
0=
0$
#166000
1!
1>
1?
0-
1^
1=
1$
#168000
0!
0>
0?
1-
0^
0=
0$
#170000
1!
1>
1?
0-
1^
1=
1$
#172000
0!
0>
0?
1-
0^
0=
0$
#174000
1!
1>
1?
0-
1^
1=
1$
#176000
0!
0>
0?
1-
0^
0=
0$
#178000
1!
1>
1?
0-
1^
1=
1$
#180000
0!
0>
0?
1-
0^
0=
0$
#182000
1!
1>
1?
0-
1^
1=
1$
#184000
0!
0>
0?
1-
0^
0=
0$
#186000
1!
1>
1?
0-
1^
1=
1$
#188000
0!
0>
0?
1-
0^
0=
0$
#190000
1!
1>
1?
0-
1^
1=
1$
#192000
0!
0>
0?
1-
0^
0=
0$
#194000
1!
1>
1?
0-
1^
1=
1$
#196000
0!
0>
0?
1-
0^
0=
0$
#198000
1!
1>
1?
0-
1^
1=
1$
#200000
0!
0>
0?
1-
0^
0=
0$
#202000
1!
1>
1?
0-
1^
1=
1$
#204000
0!
0>
0?
1-
0^
0=
0$
#206000
1!
1>
1?
0-
1^
1=
1$
#208000
0!
0>
0?
1-
0^
0=
0$
#210000
1!
1>
1?
0-
1^
1=
1$
#212000
0!
0>
0?
1-
0^
0=
0$
#214000
1!
1>
1?
0-
1^
1=
1$
#216000
0!
0>
0?
1-
0^
0=
0$
#218000
1!
1>
1?
0-
1^
1=
1$
#220000
0!
0>
0?
1-
0^
0=
0$
#222000
1!
1>
1?
0-
1^
1=
1$
#224000
0!
0>
0?
1-
0^
0=
0$
#226000
1!
1>
1?
0-
1^
1=
1$
#228000
0!
0>
0?
1-
0^
0=
0$
#230000
1!
1>
1?
0-
1^
1=
1$
#232000
0!
0>
0?
1-
0^
0=
0$
#234000
1!
1>
1?
0-
1^
1=
1$
#236000
0!
0>
0?
1-
0^
0=
0$
#238000
1!
1>
1?
0-
1^
1=
1$
#240000
0!
0>
0?
1-
0^
0=
0$
#242000
1!
1>
1?
0-
1^
1=
1$
#244000
0!
0>
0?
1-
0^
0=
0$
#246000
1!
1>
1?
0-
1^
1=
1$
#248000
0!
0>
0?
1-
0^
0=
0$
#250000
1!
1>
1?
0-
1^
1=
1$
#252000
0!
0>
0?
1-
0^
0=
0$
#254000
1!
1>
1?
0-
1^
1=
1$
#256000
0!
0>
0?
1-
0^
0=
0$
#258000
1!
1>
1?
0-
1^
1=
1$
#260000
0!
0>
0?
1-
0^
0=
0$
#262000
1!
1>
1?
0-
1^
1=
1$
#264000
0!
0>
0?
1-
0^
0=
0$
#266000
1!
1>
1?
0-
1^
1=
1$
#268000
0!
0>
0?
1-
0^
0=
0$
#270000
1!
1>
1?
0-
1^
1=
1$
#272000
0!
0>
0?
1-
0^
0=
0$
#274000
1!
1>
1?
0-
1^
1=
1$
#276000
0!
0>
0?
1-
0^
0=
0$
#278000
1!
1>
1?
0-
1^
1=
1$
#280000
0!
0>
0?
1-
0^
0=
0$
#282000
1!
1>
1?
0-
1^
1=
1$
#284000
0!
0>
0?
1-
0^
0=
0$
#286000
1!
1>
1?
0-
1^
1=
1$
#288000
0!
0>
0?
1-
0^
0=
0$
#290000
1!
1>
1?
0-
1^
1=
1$
#292000
0!
0>
0?
1-
0^
0=
0$
#294000
1!
1>
1?
0-
1^
1=
1$
#296000
0!
0>
0?
1-
0^
0=
0$
#298000
1!
1>
1?
0-
1^
1=
1$
#300000
0!
0>
0?
1-
0^
0=
0$
#302000
1!
1>
1?
0-
1^
1=
1$
#304000
0!
0>
0?
1-
0^
0=
0$
#306000
1!
1>
1?
0-
1^
1=
1$
#308000
0!
0>
0?
1-
0^
0=
0$
#310000
1!
1>
1?
0-
1^
1=
1$
#312000
0!
0>
0?
1-
0^
0=
0$
#314000
1!
1>
1?
0-
1^
1=
1$
#316000
0!
0>
0?
1-
0^
0=
0$
#318000
1!
1>
1?
0-
1^
1=
1$
#320000
0!
0>
0?
1-
0^
0=
0$
#322000
1!
1>
1?
0-
1^
1=
1$
#324000
0!
0>
0?
1-
0^
0=
0$
#326000
1!
1>
1?
0-
1^
1=
1$
#328000
0!
0>
0?
1-
0^
0=
0$
#330000
1!
1>
1?
0-
1^
1=
1$
#332000
0!
0>
0?
1-
0^
0=
0$
#334000
1!
1>
1?
0-
1^
1=
1$
#336000
0!
0>
0?
1-
0^
0=
0$
#338000
1!
1>
1?
0-
1^
1=
1$
#340000
0!
0>
0?
1-
0^
0=
0$
#342000
1!
1>
1?
0-
1^
1=
1$
#344000
0!
0>
0?
1-
0^
0=
0$
#346000
1!
1>
1?
0-
1^
1=
1$
#348000
0!
0>
0?
1-
0^
0=
0$
#350000
1!
1>
1?
0-
1^
1=
1$
#352000
0!
0>
0?
1-
0^
0=
0$
#354000
1!
1>
1?
0-
1^
1=
1$
#356000
0!
0>
0?
1-
0^
0=
0$
#358000
1!
1>
1?
0-
1^
1=
1$
#360000
0!
0>
0?
1-
0^
0=
0$
#362000
1!
1>
1?
0-
1^
1=
1$
#364000
0!
0>
0?
1-
0^
0=
0$
#366000
1!
1>
1?
0-
1^
1=
1$
#368000
0!
0>
0?
1-
0^
0=
0$
#370000
1!
1>
1?
0-
1^
1=
1$
#372000
0!
0>
0?
1-
0^
0=
0$
#374000
1!
1>
1?
0-
1^
1=
1$
#376000
0!
0>
0?
1-
0^
0=
0$
#378000
1!
1>
1?
0-
1^
1=
1$
#380000
0!
0>
0?
1-
0^
0=
0$
#382000
1!
1>
1?
0-
1^
1=
1$
#384000
0!
0>
0?
1-
0^
0=
0$
#386000
1!
1>
1?
0-
1^
1=
1$
#388000
0!
0>
0?
1-
0^
0=
0$
#390000
1!
1>
1?
0-
1^
1=
1$
#392000
0!
0>
0?
1-
0^
0=
0$
#394000
1!
1>
1?
0-
1^
1=
1$
#396000
0!
0>
0?
1-
0^
0=
0$
#398000
1!
1>
1?
0-
1^
1=
1$
#400000
0!
0>
0?
1-
0^
0=
0$
#402000
1!
1>
1?
0-
1^
1=
1$
#404000
0!
0>
0?
1-
0^
0=
0$
#406000
1!
1>
1?
0-
1^
1=
1$
#408000
0!
0>
0?
1-
0^
0=
0$
#410000
1!
1>
1?
0-
1^
1=
1$
#412000
0!
0>
0?
1-
0^
0=
0$
#414000
1!
1>
1?
0-
1^
1=
1$
#416000
0!
0>
0?
1-
0^
0=
0$
#418000
1!
1>
1?
0-
1^
1=
1$
#420000
0!
0>
0?
1-
0^
0=
0$
#422000
1!
1>
1?
0-
1^
1=
1$
#424000
0!
0>
0?
1-
0^
0=
0$
#426000
1!
1>
1?
0-
1^
1=
1$
#428000
0!
0>
0?
1-
0^
0=
0$
#430000
1!
1>
1?
0-
1^
1=
1$
#432000
0!
0>
0?
1-
0^
0=
0$
#434000
1!
1>
1?
0-
1^
1=
1$
#436000
0!
0>
0?
1-
0^
0=
0$
#438000
1!
1>
1?
0-
1^
1=
1$
#440000
0!
0>
0?
1-
0^
0=
0$
#442000
1!
1>
1?
0-
1^
1=
1$
#444000
0!
0>
0?
1-
0^
0=
0$
#446000
1!
1>
1?
0-
1^
1=
1$
#448000
0!
0>
0?
1-
0^
0=
0$
#450000
1!
1>
1?
0-
1^
1=
1$
#452000
0!
0>
0?
1-
0^
0=
0$
#454000
1!
1>
1?
0-
1^
1=
1$
#456000
0!
0>
0?
1-
0^
0=
0$
#458000
1!
1>
1?
0-
1^
1=
1$
#460000
0!
0>
0?
1-
0^
0=
0$
#462000
1!
1>
1?
0-
1^
1=
1$
#464000
0!
0>
0?
1-
0^
0=
0$
#466000
1!
1>
1?
0-
1^
1=
1$
#468000
0!
0>
0?
1-
0^
0=
0$
#470000
1!
1>
1?
0-
1^
1=
1$
#472000
0!
0>
0?
1-
0^
0=
0$
#474000
1!
1>
1?
0-
1^
1=
1$
#476000
0!
0>
0?
1-
0^
0=
0$
#478000
1!
1>
1?
0-
1^
1=
1$
#480000
0!
0>
0?
1-
0^
0=
0$
#482000
1!
1>
1?
0-
1^
1=
1$
#484000
0!
0>
0?
1-
0^
0=
0$
#486000
1!
1>
1?
0-
1^
1=
1$
#488000
0!
0>
0?
1-
0^
0=
0$
#490000
1!
1>
1?
0-
1^
1=
1$
#492000
0!
0>
0?
1-
0^
0=
0$
#494000
1!
1>
1?
0-
1^
1=
1$
#496000
0!
0>
0?
1-
0^
0=
0$
#498000
1!
1>
1?
0-
1^
1=
1$
#500000
0!
0>
0?
1-
0^
0=
0$
#502000
1!
1>
1?
0-
1^
1=
1$
#504000
0!
0>
0?
1-
0^
0=
0$
#506000
1!
1>
1?
0-
1^
1=
1$
#508000
0!
0>
0?
1-
0^
0=
0$
#510000
1!
1>
1?
0-
1^
1=
1$
#512000
0!
0>
0?
1-
0^
0=
0$
#514000
1!
1>
1?
0-
1^
1=
1$
#516000
0!
0>
0?
1-
0^
0=
0$
#518000
1!
1>
1?
0-
1^
1=
1$
#520000
0!
0>
0?
1-
0^
0=
0$
#522000
1!
1>
1?
0-
1^
1=
1$
#524000
0!
0>
0?
1-
0^
0=
0$
#526000
1!
1>
1?
0-
1^
1=
1$
#528000
0!
0>
0?
1-
0^
0=
0$
#530000
1!
1>
1?
0-
1^
1=
1$
#532000
0!
0>
0?
1-
0^
0=
0$
#534000
1!
1>
1?
0-
1^
1=
1$
#536000
0!
0>
0?
1-
0^
0=
0$
#538000
1!
1>
1?
0-
1^
1=
1$
#540000
0!
0>
0?
1-
0^
0=
0$
#542000
1!
1>
1?
0-
1^
1=
1$
#544000
0!
0>
0?
1-
0^
0=
0$
#546000
1!
1>
1?
0-
1^
1=
1$
#548000
0!
0>
0?
1-
0^
0=
0$
#550000
1!
1>
1?
0-
1^
1=
1$
#552000
0!
0>
0?
1-
0^
0=
0$
#554000
1!
1>
1?
0-
1^
1=
1$
#556000
0!
0>
0?
1-
0^
0=
0$
#558000
1!
1>
1?
0-
1^
1=
1$
#560000
0!
0>
0?
1-
0^
0=
0$
#562000
1!
1>
1?
0-
1^
1=
1$
#564000
0!
0>
0?
1-
0^
0=
0$
#566000
1!
1>
1?
0-
1^
1=
1$
#568000
0!
0>
0?
1-
0^
0=
0$
#570000
1!
1>
1?
0-
1^
1=
1$
#572000
0!
0>
0?
1-
0^
0=
0$
#574000
1!
1>
1?
0-
1^
1=
1$
#576000
0!
0>
0?
1-
0^
0=
0$
#578000
1!
1>
1?
0-
1^
1=
1$
#580000
0!
0>
0?
1-
0^
0=
0$
#582000
1!
1>
1?
0-
1^
1=
1$
#584000
0!
0>
0?
1-
0^
0=
0$
#586000
1!
1>
1?
0-
1^
1=
1$
#588000
0!
0>
0?
1-
0^
0=
0$
#590000
1!
1>
1?
0-
1^
1=
1$
#592000
0!
0>
0?
1-
0^
0=
0$
#594000
1!
1>
1?
0-
1^
1=
1$
#596000
0!
0>
0?
1-
0^
0=
0$
#598000
1!
1>
1?
0-
1^
1=
1$
#600000
0!
0>
0?
1-
0^
0=
0$
#602000
1!
1>
1?
0-
1^
1=
1$
#604000
0!
0>
0?
1-
0^
0=
0$
#606000
1!
1>
1?
0-
1^
1=
1$
#608000
0!
0>
0?
1-
0^
0=
0$
#610000
1!
1>
1?
0-
1^
1=
1$
#612000
0!
0>
0?
1-
0^
0=
0$
#614000
1!
1>
1?
0-
1^
1=
1$
#616000
0!
0>
0?
1-
0^
0=
0$
#618000
1!
1>
1?
0-
1^
1=
1$
#620000
0!
0>
0?
1-
0^
0=
0$
#622000
1!
1>
1?
0-
1^
1=
1$
#624000
0!
0>
0?
1-
0^
0=
0$
#626000
1!
1>
1?
0-
1^
1=
1$
#628000
0!
0>
0?
1-
0^
0=
0$
#630000
1!
1>
1?
0-
1^
1=
1$
#632000
0!
0>
0?
1-
0^
0=
0$
#634000
1!
1>
1?
0-
1^
1=
1$
#636000
0!
0>
0?
1-
0^
0=
0$
#638000
1!
1>
1?
0-
1^
1=
1$
#640000
0!
0>
0?
1-
0^
0=
0$
#642000
1!
1>
1?
0-
1^
1=
1$
#644000
0!
0>
0?
1-
0^
0=
0$
#646000
1!
1>
1?
0-
1^
1=
1$
#648000
0!
0>
0?
1-
0^
0=
0$
#650000
1!
1>
1?
0-
1^
1=
1$
#652000
0!
0>
0?
1-
0^
0=
0$
#654000
1!
1>
1?
0-
1^
1=
1$
#656000
0!
0>
0?
1-
0^
0=
0$
#658000
1!
1>
1?
0-
1^
1=
1$
#660000
0!
0>
0?
1-
0^
0=
0$
#662000
1!
1>
1?
0-
1^
1=
1$
#664000
0!
0>
0?
1-
0^
0=
0$
#666000
1!
1>
1?
0-
1^
1=
1$
#668000
0!
0>
0?
1-
0^
0=
0$
#670000
1!
1>
1?
0-
1^
1=
1$
#672000
0!
0>
0?
1-
0^
0=
0$
#674000
1!
1>
1?
0-
1^
1=
1$
#676000
0!
0>
0?
1-
0^
0=
0$
#678000
1!
1>
1?
0-
1^
1=
1$
#680000
0!
0>
0?
1-
0^
0=
0$
#682000
1!
1>
1?
0-
1^
1=
1$
#684000
0!
0>
0?
1-
0^
0=
0$
#686000
1!
1>
1?
0-
1^
1=
1$
#688000
0!
0>
0?
1-
0^
0=
0$
#690000
1!
1>
1?
0-
1^
1=
1$
#692000
0!
0>
0?
1-
0^
0=
0$
#694000
1!
1>
1?
0-
1^
1=
1$
#696000
0!
0>
0?
1-
0^
0=
0$
#698000
1!
1>
1?
0-
1^
1=
1$
#700000
0!
0>
0?
1-
0^
0=
0$
#702000
1!
1>
1?
0-
1^
1=
1$
#704000
0!
0>
0?
1-
0^
0=
0$
#706000
1!
1>
1?
0-
1^
1=
1$
#708000
0!
0>
0?
1-
0^
0=
0$
#710000
1!
1>
1?
0-
1^
1=
1$
#712000
0!
0>
0?
1-
0^
0=
0$
#714000
1!
1>
1?
0-
1^
1=
1$
#716000
0!
0>
0?
1-
0^
0=
0$
#718000
1!
1>
1?
0-
1^
1=
1$
#720000
0!
0>
0?
1-
0^
0=
0$
#722000
1!
1>
1?
0-
1^
1=
1$
#724000
0!
0>
0?
1-
0^
0=
0$
#726000
1!
1>
1?
0-
1^
1=
1$
#728000
0!
0>
0?
1-
0^
0=
0$
#730000
1!
1>
1?
0-
1^
1=
1$
#732000
0!
0>
0?
1-
0^
0=
0$
#734000
1!
1>
1?
0-
1^
1=
1$
#736000
0!
0>
0?
1-
0^
0=
0$
#738000
1!
1>
1?
0-
1^
1=
1$
#740000
0!
0>
0?
1-
0^
0=
0$
#742000
1!
1>
1?
0-
1^
1=
1$
#744000
0!
0>
0?
1-
0^
0=
0$
#746000
1!
1>
1?
0-
1^
1=
1$
#748000
0!
0>
0?
1-
0^
0=
0$
#750000
1!
1>
1?
0-
1^
1=
1$
#752000
0!
0>
0?
1-
0^
0=
0$
#754000
1!
1>
1?
0-
1^
1=
1$
#756000
0!
0>
0?
1-
0^
0=
0$
#758000
1!
1>
1?
0-
1^
1=
1$
#760000
0!
0>
0?
1-
0^
0=
0$
#762000
1!
1>
1?
0-
1^
1=
1$
#764000
0!
0>
0?
1-
0^
0=
0$
#766000
1!
1>
1?
0-
1^
1=
1$
#768000
0!
0>
0?
1-
0^
0=
0$
#770000
1!
1>
1?
0-
1^
1=
1$
#772000
0!
0>
0?
1-
0^
0=
0$
#774000
1!
1>
1?
0-
1^
1=
1$
#776000
0!
0>
0?
1-
0^
0=
0$
#778000
1!
1>
1?
0-
1^
1=
1$
#780000
0!
0>
0?
1-
0^
0=
0$
#782000
1!
1>
1?
0-
1^
1=
1$
#784000
0!
0>
0?
1-
0^
0=
0$
#786000
1!
1>
1?
0-
1^
1=
1$
#788000
0!
0>
0?
1-
0^
0=
0$
#790000
1!
1>
1?
0-
1^
1=
1$
#792000
0!
0>
0?
1-
0^
0=
0$
#794000
1!
1>
1?
0-
1^
1=
1$
#796000
0!
0>
0?
1-
0^
0=
0$
#798000
1!
1>
1?
0-
1^
1=
1$
#800000
0!
0>
0?
1-
0^
0=
0$
#802000
1!
1>
1?
0-
1^
1=
1$
#804000
0!
0>
0?
1-
0^
0=
0$
#806000
1!
1>
1?
0-
1^
1=
1$
#808000
0!
0>
0?
1-
0^
0=
0$
#810000
1!
1>
1?
0-
1^
1=
1$
#812000
0!
0>
0?
1-
0^
0=
0$
#814000
1!
1>
1?
0-
1^
1=
1$
#816000
0!
0>
0?
1-
0^
0=
0$
#818000
1!
1>
1?
0-
1^
1=
1$
#820000
0!
0>
0?
1-
0^
0=
0$
#822000
1!
1>
1?
0-
1^
1=
1$
#824000
0!
0>
0?
1-
0^
0=
0$
#826000
1!
1>
1?
0-
1^
1=
1$
#828000
0!
0>
0?
1-
0^
0=
0$
#830000
1!
1>
1?
0-
1^
1=
1$
#832000
0!
0>
0?
1-
0^
0=
0$
#834000
1!
1>
1?
0-
1^
1=
1$
#836000
0!
0>
0?
1-
0^
0=
0$
#838000
1!
1>
1?
0-
1^
1=
1$
#840000
0!
0>
0?
1-
0^
0=
0$
#842000
1!
1>
1?
0-
1^
1=
1$
#844000
0!
0>
0?
1-
0^
0=
0$
#846000
1!
1>
1?
0-
1^
1=
1$
#848000
0!
0>
0?
1-
0^
0=
0$
#850000
1!
1>
1?
0-
1^
1=
1$
#852000
0!
0>
0?
1-
0^
0=
0$
#854000
1!
1>
1?
0-
1^
1=
1$
#856000
0!
0>
0?
1-
0^
0=
0$
#858000
1!
1>
1?
0-
1^
1=
1$
#860000
0!
0>
0?
1-
0^
0=
0$
#862000
1!
1>
1?
0-
1^
1=
1$
#864000
0!
0>
0?
1-
0^
0=
0$
#866000
1!
1>
1?
0-
1^
1=
1$
#868000
0!
0>
0?
1-
0^
0=
0$
#870000
1!
1>
1?
0-
1^
1=
1$
#872000
0!
0>
0?
1-
0^
0=
0$
#874000
1!
1>
1?
0-
1^
1=
1$
#876000
0!
0>
0?
1-
0^
0=
0$
#878000
1!
1>
1?
0-
1^
1=
1$
#880000
0!
0>
0?
1-
0^
0=
0$
#882000
1!
1>
1?
0-
1^
1=
1$
#884000
0!
0>
0?
1-
0^
0=
0$
#886000
1!
1>
1?
0-
1^
1=
1$
#888000
0!
0>
0?
1-
0^
0=
0$
#890000
1!
1>
1?
0-
1^
1=
1$
#892000
0!
0>
0?
1-
0^
0=
0$
#894000
1!
1>
1?
0-
1^
1=
1$
#896000
0!
0>
0?
1-
0^
0=
0$
#898000
1!
1>
1?
0-
1^
1=
1$
#900000
0!
0>
0?
1-
0^
0=
0$
#902000
1!
1>
1?
0-
1^
1=
1$
#904000
0!
0>
0?
1-
0^
0=
0$
#906000
1!
1>
1?
0-
1^
1=
1$
#908000
0!
0>
0?
1-
0^
0=
0$
#910000
1!
1>
1?
0-
1^
1=
1$
#912000
0!
0>
0?
1-
0^
0=
0$
#914000
1!
1>
1?
0-
1^
1=
1$
#916000
0!
0>
0?
1-
0^
0=
0$
#918000
1!
1>
1?
0-
1^
1=
1$
#920000
0!
0>
0?
1-
0^
0=
0$
#922000
1!
1>
1?
0-
1^
1=
1$
#924000
0!
0>
0?
1-
0^
0=
0$
#926000
1!
1>
1?
0-
1^
1=
1$
#928000
0!
0>
0?
1-
0^
0=
0$
#930000
1!
1>
1?
0-
1^
1=
1$
#932000
0!
0>
0?
1-
0^
0=
0$
#934000
1!
1>
1?
0-
1^
1=
1$
#936000
0!
0>
0?
1-
0^
0=
0$
#938000
1!
1>
1?
0-
1^
1=
1$
#940000
0!
0>
0?
1-
0^
0=
0$
#942000
1!
1>
1?
0-
1^
1=
1$
#944000
0!
0>
0?
1-
0^
0=
0$
#946000
1!
1>
1?
0-
1^
1=
1$
#948000
0!
0>
0?
1-
0^
0=
0$
#950000
1!
1>
1?
0-
1^
1=
1$
#952000
0!
0>
0?
1-
0^
0=
0$
#954000
1!
1>
1?
0-
1^
1=
1$
#956000
0!
0>
0?
1-
0^
0=
0$
#958000
1!
1>
1?
0-
1^
1=
1$
#960000
0!
0>
0?
1-
0^
0=
0$
#962000
1!
1>
1?
0-
1^
1=
1$
#964000
0!
0>
0?
1-
0^
0=
0$
#966000
1!
1>
1?
0-
1^
1=
1$
#968000
0!
0>
0?
1-
0^
0=
0$
#970000
1!
1>
1?
0-
1^
1=
1$
#972000
0!
0>
0?
1-
0^
0=
0$
#974000
1!
1>
1?
0-
1^
1=
1$
#976000
0!
0>
0?
1-
0^
0=
0$
#978000
1!
1>
1?
0-
1^
1=
1$
#980000
0!
0>
0?
1-
0^
0=
0$
#982000
1!
1>
1?
0-
1^
1=
1$
#984000
0!
0>
0?
1-
0^
0=
0$
#986000
1!
1>
1?
0-
1^
1=
1$
#988000
0!
0>
0?
1-
0^
0=
0$
#990000
1!
1>
1?
0-
1^
1=
1$
#992000
0!
0>
0?
1-
0^
0=
0$
#994000
1!
1>
1?
0-
1^
1=
1$
#996000
0!
0>
0?
1-
0^
0=
0$
#998000
1!
1>
1?
0-
1^
1=
1$
