simulation/qsim/contador.msim.vcd
$comment
	File created using the following command:
		vcd file contador.msim.vcd -direction
$end
$date
	Mon Apr 03 17:35:59 2023
$end
$version
	ModelSim Version 10.1d
$end
$timescale
	1ps
$end
$scope module contador_top_vlg_vec_tst $end
$var reg 1 ! C $end
$var reg 1 " D $end
$var wire 1 # Carry $end
$var wire 1 $ out [7] $end
$var wire 1 % out [6] $end
$var wire 1 & out [5] $end
$var wire 1 ' out [4] $end
$var wire 1 ( out [3] $end
$var wire 1 ) out [2] $end
$var wire 1 * out [1] $end
$var wire 1 + out [0] $end
$var wire 1 , sampler $end
$scope module i1 $end
$var wire 1 - gnd $end
$var wire 1 . vcc $end
$var wire 1 / unknown $end
$var tri1 1 0 devclrn $end
$var tri1 1 1 devpor $end
$var tri1 1 2 devoe $end
$var wire 1 3 Carry~output_o $end
$var wire 1 4 out[7]~output_o $end
$var wire 1 5 out[6]~output_o $end
$var wire 1 6 out[5]~output_o $end
$var wire 1 7 out[4]~output_o $end
$var wire 1 8 out[3]~output_o $end
$var wire 1 9 out[2]~output_o $end
$var wire 1 : out[1]~output_o $end
$var wire 1 ; out[0]~output_o $end
$var wire 1 < C~input_o $end
$var wire 1 = C~inputclkctrl_outclk $end
$var wire 1 > inst2~0_combout $end
$var wire 1 ? inst2~q $end
$var wire 1 @ inst60~0_combout $end
$var wire 1 A D~input_o $end
$var wire 1 B inst5~0_combout $end
$var wire 1 C inst5~q $end
$var wire 1 D inst59~1_combout $end
$var wire 1 E inst59~0_combout $end
$var wire 1 F inst57~0_combout $end
$var wire 1 G inst60~1_combout $end
$var wire 1 H inst~0_combout $end
$var wire 1 I inst~q $end
$var wire 1 J inst13~0_combout $end
$var wire 1 K inst1~0_combout $end
$var wire 1 L inst1~q $end
$var wire 1 M inst3~0_combout $end
$var wire 1 N inst3~q $end
$var wire 1 O inst24~0_combout $end
$var wire 1 P inst4~0_combout $end
$var wire 1 Q inst4~q $end
$var wire 1 R inst6~0_combout $end
$var wire 1 S inst6~q $end
$var wire 1 T inst30~0_combout $end
$var wire 1 U inst30~1_combout $end
$var wire 1 V inst7~0_combout $end
$var wire 1 W inst7~q $end
$upscope $end
$upscope $end
$enddefinitions $end
#0
$dumpvars
0!
1"
0#
0+
0*
0)
0(
0'
0&
0%
0$
x,
0-
1.
x/
10
11
12
03
04
05
06
07
08
09
0:
0;
0<
0=
0>
0?
0@
1A
0B
0C
0D
0E
0F
0G
0H
0I
0J
0K
0L
0M
0N
0O
0P
0Q
0R
0S
1T
0U
0V
0W
$end
#10000
1!
1<
1=
0,
#20000
0!
0<
0=
1,
#30000
1!
1<
1=
0,
#40000
0!
0<
0=
1,
#50000
1!
1<
1=
0,
#60000
0!
0<
0=
1,
#70000
1!
1<
1=
0,
#80000
0!
0<
0=
1,
#90000
1!
1<
1=
0,
#100000
0!
0<
0=
1,
#110000
1!
1<
1=
0,
#120000
0"
0!
0A
0<
0=
1,
#130000
1!
1<
1=
0,
#140000
0!
0<
0=
1,
#150000
1!
1<
1=
0,
#160000
0!
0<
0=
1,
#170000
1!
1<
1=
0,
#180000
0!
0<
0=
1,
#190000
1!
1<
1=
0,
#200000
0!
0<
0=
1,
#210000
1!
1<
1=
0,
#220000
0!
0<
0=
1,
#230000
1!
1<
1=
0,
#240000
1"
0!
1A
0<
0=
1,
#250000
1!
1<
1=
0,
#260000
0!
0<
0=
1,
#270000
1!
1<
1=
0,
#280000
0!
0<
0=
1,
#290000
1!
1<
1=
0,
#300000
0!
0<
0=
1,
#310000
1!
1<
1=
0,
#320000
0!
0<
0=
1,
#330000
1!
1<
1=
0,
#340000
0!
0<
0=
1,
#350000
1!
1<
1=
0,
#360000
0"
0!
0A
0<
0=
1,
#370000
1!
1<
1=
0,
#380000
0!
0<
0=
1,
#390000
1!
1<
1=
0,
#400000
0!
0<
0=
1,
#410000
1!
1<
1=
0,
#420000
0!
0<
0=
1,
#430000
1!
1<
1=
0,
#440000
0!
0<
0=
1,
#450000
1!
1<
1=
0,
#460000
0!
0<
0=
1,
#470000
1!
1<
1=
0,
#480000
1"
0!
1A
0<
0=
1,
#490000
1!
1<
1=
0,
#500000
0!
0<
0=
1,
#510000
1!
1<
1=
0,
#520000
0!
0<
0=
1,
#530000
1!
1<
1=
0,
#540000
0!
0<
0=
1,
#550000
1!
1<
1=
0,
#560000
0!
0<
0=
1,
#570000
1!
1<
1=
0,
#580000
0!
0<
0=
1,
#590000
1!
1<
1=
0,
#600000
0"
0!
0A
0<
0=
1,
#610000
1!
1<
1=
0,
#620000
0!
0<
0=
1,
#630000
1!
1<
1=
0,
#640000
0!
0<
0=
1,
#650000
1!
1<
1=
0,
#660000
0!
0<
0=
1,
#670000
1!
1<
1=
0,
#680000
0!
0<
0=
1,
#690000
1!
1<
1=
0,
#700000
0!
0<
0=
1,
#710000
1!
1<
1=
0,
#720000
1"
0!
1A
0<
0=
1,
#730000
1!
1<
1=
0,
#740000
0!
0<
0=
1,
#750000
1!
1<
1=
0,
#760000
0!
0<
0=
1,
#770000
1!
1<
1=
0,
#780000
0!
0<
0=
1,
#790000
1!
1<
1=
0,
#800000
0!
0<
0=
1,
#810000
1!
1<
1=
0,
#820000
0!
0<
0=
1,
#830000
1!
1<
1=
0,
#840000
0"
0!
0A
0<
0=
1,
#850000
1!
1<
1=
0,
#860000
0!
0<
0=
1,
#870000
1!
1<
1=
0,
#880000
0!
0<
0=
1,
#890000
1!
1<
1=
0,
#900000
0!
0<
0=
1,
#910000
1!
1<
1=
0,
#920000
0!
0<
0=
1,
#930000
1!
1<
1=
0,
#940000
0!
0<
0=
1,
#950000
1!
1<
1=
0,
#960000
1"
0!
1A
0<
0=
1,
#970000
1!
1<
1=
0,
#980000
0!
0<
0=
1,
#990000
1!
1<
1=
0,
